woher kommt die source?  => gitlab create enw prj, from template => java
    irgend was add project java => spring => git-link
mvn install  |  mvn -DskipTests=true install | mvn test


[INFO] ------------------------------------------------------------------------
[INFO] BUILD SUCCESS
[INFO] ------------------------------------------------------------------------
[INFO] Total time:  09:43 min
[INFO] Finished at: 2021-08-31T12:21:49+02:00
[INFO] ------------------------------------------------------------------------

mvn spring-boot:run


http://localhost:8080/  OK

add from git, url type=java
https://gitlab.com/leon_graf/smplejava.git

create

2) changed source
Topology => D click build => build #2

#1
Cloning "https://gitlab.com/leon_graf/simplejava.git" ...
	Commit:	064f1eb9411032dbf42e3bcb82df87e20246c42f (Initialized from 'Gitpod/Spring Petclinic' project template)
	Author:	GitLab <root@localhost>
	Date:	Tue Sep 29 14:27:14 2020 -0500

#2
Cloning "https://gitlab.com/leon_graf/simplejava.git" ...
	Commit:	8bc76f8ca8b6205f130f3807f1f35f8c84e4231e (changed source welcome.html)

